<svg width="1203" height="256" viewBox="0 0 1203 256" fill="none" xmlns="http://www.w3.org/2000/svg">
<path d="M36.0923 72.2679C16.2109 72.2679 0 56.0383 0 36.134C0 16.2297 16.2109 2.33627e-06 36.0923 2.33627e-06C46.1859 2.33627e-06 55.3619 3.98086 62.091 11.3301L52.915 20.2105C48.327 15.6172 42.5155 12.8612 36.0923 12.8612C23.2459 12.8612 12.8464 23.2727 12.8464 36.134C12.8464 48.9952 23.2459 59.4067 36.0923 59.4067C42.5155 59.4067 48.6328 56.9569 52.915 52.0574L62.091 60.9378C55.3619 68.2871 46.1859 72.2679 36.0923 72.2679ZM240.411 72.2679C220.53 72.2679 204.319 56.0383 204.319 36.134C204.319 16.2297 220.53 2.33627e-06 240.411 2.33627e-06C250.505 2.33627e-06 259.681 3.98086 266.41 11.3301L257.234 20.2105C252.646 15.6172 246.835 12.8612 240.411 12.8612C227.565 12.8612 217.165 23.2727 217.165 36.134C217.165 48.9952 227.565 59.4067 240.411 59.4067C246.835 59.4067 252.952 56.9569 257.234 52.0574L266.41 60.9378C259.681 68.2871 250.505 72.2679 240.411 72.2679Z" transform="translate(74.9374 71.043)" fill="black"/>
<path d="M13.764 1.83732L30.8926 39.8086L47.4094 1.83732H61.1734L37.0099 54.8134C35.7864 57.2632 34.8688 59.4067 33.3395 61.244C32.116 63.0813 30.5867 64.9187 28.7515 66.4498C26.9163 67.9809 25.0811 69.2057 22.94 69.8182C20.799 70.7368 18.0462 71.0431 15.2933 71.0431C13.1523 71.0431 11.3171 70.7368 9.78774 70.4306C8.2584 70.1244 7.03495 69.8182 6.11735 69.2057L3.36454 67.6747L1.52934 66.1435L8.87013 56.9569C9.48186 57.5694 10.7053 58.488 11.9288 59.1005C13.1523 59.7129 14.3757 60.0191 16.2109 60.0191C18.0461 60.0191 19.5755 59.4067 20.7989 58.488C22.0224 57.5694 23.2459 56.0383 24.4694 53.8947L9.33431e-06 1.5311H13.764V1.83732ZM127.241 1.83732V69.512H115.006V12.555H86.2544V69.512H73.408V1.83732H127.241ZM164.556 58.488H197.59V69.512H152.322V1.83732H196.366V12.555H164.556V29.3971H194.225V39.8086H164.556V58.488ZM219.306 1.83732H241.941C245.611 1.83732 248.976 2.14354 252.034 3.0622C255.093 3.67464 257.846 4.89952 259.987 6.43062C262.128 7.96172 263.963 10.1053 265.186 12.555C266.41 15.0048 267.022 18.067 267.022 21.4354C267.022 25.11 266.41 28.1722 265.186 30.622C263.963 33.0718 262.128 35.2153 259.681 36.7464C257.54 38.2775 254.787 39.5024 251.728 40.4211C248.67 41.0335 245.305 41.6459 241.941 41.6459H232.153V69.512H219.306V1.83732ZM231.847 31.5407H240.717C244.693 31.5407 248.058 30.9282 250.505 29.3971C252.952 27.866 254.481 25.4163 254.481 21.7416C254.481 19.9043 254.175 18.3732 253.564 17.1483C252.952 15.9234 252.034 15.0048 250.811 14.3923C249.587 13.7799 248.364 13.1675 246.529 12.8612C244.999 12.555 243.164 12.2488 241.329 12.2488H232.459V31.5407H231.847ZM283.844 69.512H270.386L297.608 1.83732H310.455L337.983 69.512H324.219L304.032 18.6794L283.844 69.512ZM364.593 1.83732V30.0096H375.91C376.522 25.4163 377.745 21.4354 379.581 17.7608C381.722 14.0861 384.169 11.0239 387.227 8.26794C390.286 5.51196 393.956 3.67464 398.239 2.14354C402.215 0.61244 406.803 -2.33627e-06 411.697 -2.33627e-06C416.896 -2.33627e-06 421.79 0.918661 426.072 2.44976C430.355 4.28708 434.331 6.43062 437.389 9.79904C440.754 12.8612 443.201 16.5359 445.036 20.823C446.871 25.1101 447.789 30.0096 447.789 35.2153C447.789 40.4211 446.871 45.3206 445.036 49.6077C443.201 53.8947 440.754 57.8756 437.389 60.9378C434.025 64 430.355 66.4498 426.072 68.2871C421.79 70.1244 416.896 71.0431 411.697 71.0431C406.803 71.0431 402.521 70.4306 398.544 68.8995C394.568 67.3684 390.898 65.2249 387.839 62.7751C384.78 60.0191 382.028 56.9569 380.192 53.2823C378.051 49.6077 376.828 45.6268 376.216 41.0335H364.899V69.512H352.359V1.83732H364.593ZM388.757 35.5215C388.757 38.89 389.368 42.2584 390.286 45.0144C391.509 48.0766 393.039 50.5263 394.874 52.6699C396.709 54.8134 399.156 56.6507 401.909 57.8756C404.662 59.1005 407.72 59.7129 411.391 59.7129C415.061 59.7129 417.814 59.1005 420.873 57.8756C423.625 56.6507 426.072 54.8134 428.214 52.6699C430.049 50.5263 431.578 47.7703 432.801 45.0144C434.025 41.9522 434.331 38.89 434.331 35.5215C434.331 32.1531 433.719 29.0909 432.801 26.0287C431.578 22.9665 430.049 20.5167 428.214 18.3732C426.378 16.2297 423.931 14.3923 420.873 13.1675C418.12 11.9426 415.061 11.3301 411.391 11.3301C407.72 11.3301 404.968 11.9426 401.909 13.1675C399.156 14.3923 396.709 16.2297 394.874 18.3732C393.039 20.5167 391.509 22.9665 390.286 26.0287C389.368 29.0909 388.757 32.1531 388.757 35.5215Z" transform="translate(352.665 71.3494)" fill="black"/>
<path d="M10.7053 67.6746V80.8421H-1.86686e-05V56.6507H10.3994L31.8101 -1.16814e-06H44.0448L65.1497 56.6507H75.855V80.8421H65.1497V67.6746H10.7053ZM22.94 56.6507H51.6914L37.3158 13.7799L22.94 56.6507ZM96.9598 49.9139L129.687 -1.16814e-06H144.063V67.6746H131.523V17.7608H131.217L98.795 67.6746H84.1133V-1.16814e-06H96.6539V49.9139H96.9598Z" transform="translate(804.123 73.1868)" fill="black"/>
<path d="M108.277 0L125.405 45.3206L162.721 14.3923L154.463 62.1627L202.178 54.201L171.591 91.5598L216.86 108.402L171.591 125.55L202.178 162.909L154.463 154.641L162.721 202.411L125.405 171.789L108.277 217.11L91.4542 171.789L23.2459 256L62.091 154.641L14.3757 162.909L45.2683 125.55L0 108.402L45.2683 91.5598L14.3757 54.201L62.091 62.1627L54.1384 14.3923L91.4542 45.3206L108.277 0Z" fill="#C9002C"/>
<path d="M36.0923 72.2679C16.2109 72.2679 0 56.0383 0 36.134C0 16.2297 16.2109 1.16814e-06 36.0923 1.16814e-06C46.1859 1.16814e-06 55.3619 3.98086 62.091 11.3301L52.915 20.2105C48.327 15.6172 42.5155 12.8612 36.0923 12.8612C23.2459 12.8612 12.8464 23.2727 12.8464 36.134C12.8464 48.9952 23.2459 59.4067 36.0923 59.4067C42.5155 59.4067 48.6328 56.9569 52.915 52.0574L62.091 60.9378C55.3619 68.2871 46.1859 72.2679 36.0923 72.2679Z" transform="translate(74.9374 70.7368)" fill="white"/>
<g opacity="0.5" transform="translate(1012.26 71.4106)">
<path d="M0 69.4507H7.06552V40.8988H20.2973C33.5291 40.8988 43.5493 34.0823 43.5493 21.2211C43.5493 7.97397 33.9145 1.54335 20.5542 1.54335H0V69.4507ZM7.06552 7.97397H19.7835C29.1613 7.97397 36.2269 11.7037 36.2269 21.2211C36.2269 30.3525 29.2898 34.854 19.9119 34.854H7.06552V7.97397Z" fill="black"/>
<path d="M68.2867 38.1979H80.1054L98.3473 69.4507H106.954L87.6847 37.2976C97.3195 36.1401 105.027 30.3525 105.027 19.8063C105.027 6.30201 94.1079 1.54335 81.6469 1.54335H61.2211V69.4507H68.2867V38.1979ZM68.2867 7.97397H81.0046C89.9971 7.97397 97.7049 10.6748 97.7049 19.8063C97.7049 28.2947 90.8963 31.8959 80.7477 31.8959H68.2867V7.97397Z" fill="black"/>
<path d="M190.74 35.3684C190.74 14.4046 175.71 0 155.027 0C134.601 0 119.571 14.4046 119.571 35.3684C119.571 56.075 134.601 71.1227 155.027 71.1227C175.71 71.1227 190.74 56.075 190.74 35.3684ZM183.032 35.3684C183.032 51.3164 172.241 64.5634 155.027 64.5634C138.07 64.5634 127.279 51.3164 127.279 35.3684C127.279 19.4205 137.941 6.17339 155.027 6.17339C172.241 6.17339 183.032 19.4205 183.032 35.3684Z" fill="black"/>
</g>
<path d="M5.30985 17.3443H8.39298V2.69474H13.7028V0H0V2.69474H5.30985V17.3443Z" transform="translate(957.461 62.2729)" fill="black"/>
<path d="M16.9416 17.3443H19.8779V3.40517H19.9268L25.1143 17.3443H27.2676L32.5286 3.40517H32.5775V17.3443H35.6362V0H30.7912L26.3378 12.3223H26.2644L21.762 0H16.9416V17.3443Z" transform="translate(957.461 62.2729)" fill="black"/>
</svg>
