<?xml version="1.0" encoding="UTF-8"?>
<svg width="97px" height="70px" viewBox="0 0 97 70" version="1.1" xmlns="http://www.w3.org/2000/svg" xmlns:xlink="http://www.w3.org/1999/xlink">
    <!-- Generator: Sketch 50.2 (55047) - http://www.bohemiancoding.com/sketch -->
    <title>order-intro-icon-1</title>
    <desc>Created with Sketch.</desc>
    <defs></defs>
    <g id="Page-1" stroke="none" stroke-width="1" fill="none" fill-rule="evenodd">
        <g id="order-intro-icon-1" transform="translate(0.000000, -1.000000)" fill="#000000" fill-rule="nonzero">
            <path d="M95.9,6.2 C96,3.5 93.5,0.9 90.8,1 L24.6,1 C23,1 21.2,1 20.1,2.3 C17.1,5.2 19.3,9.8 18.3,13.4 C14.2,13.8 10,13.4 5.9,13.6 C2.8,13.6 -0.2,16.6 0.1,19.7 L0.1,63.2 C0.1,64.5 0.1,65.9 0.5,67.2 C1.7,69.1 3.5,71.1 6,70.9 C13.4,71 20.7,70.9 28.1,70.9 C30.9,71.1 33.5,68.8 34.1,66.2 C34.5,63 34.1,59.8 34.3,56.6 C34.5,56.4 34.9,55.9 35,55.7 C38.9,55.6 42.7,55.7 46.6,55.7 C46.6,59.4 46.5,63.1 46.1,66.8 L43.2,67.6 C43.2,68.6 43.2,69.5 43.3,70.5 C47.9,71 52.6,70.8 57.2,70.9 C61.7,70.9 66.1,71.1 70.6,70.6 C70.8,69.9 71.1,69.2 71.4,68.5 C70.2,67.5 68.1,66.9 68,65 C67.8,61.9 67.3,58.8 67.1,55.8 L90.3,55.8 C91.9,55.8 93.8,55.5 94.8,54.1 C96.2,52.8 96,50.8 96.1,49 C95.9,34.7 96,20.5 95.9,6.2 Z M30.7,63.3 C30.7,64.9 30.6,67.3 28.5,67.4 C21,67.6 13.4,67.5 5.8,67.4 C4.2,67.7 3.4,65.9 3.5,64.5 L3.5,21 C3.4,19.7 3.8,18.5 4.3,17.3 C12.9,17.2 21.4,17.1 30,17.4 C30.3,18.8 30.7,20.2 30.7,21.6 C30.7,35.6 30.6,49.4 30.7,63.3 Z M29.2,13.7 L21.8,13.5 C21.8,10.9 21.6,8.2 21.9,5.6 C22.6,4.4 24.1,4.6 25.3,4.6 L89.5,4.6 C90.6,4.5 91.5,4.9 92.5,5.4 L92.5,41 C73.1,41.1 53.6,41 34.2,41 C34.1,34 34.2,26.9 34.2,19.9 C34.2,16.9 32,14.1 29.2,13.7 Z M64.6,67.2 L49.5,67.2 C49.5,63.6 49.7,59.9 50.1,56.3 C54.6,56.3 59.1,56.2 63.5,56.4 C63.6,60 64.8,63.6 64.6,67.2 Z M92.3,51.5 C91.5,52.7 90.1,52.4 88.9,52.5 L34.2,52.4 C34.1,49.8 34.1,47.2 34.2,44.7 C53.6,44.6 73.1,44.6 92.5,44.7 C92.4,47 92.6,49.2 92.3,51.5 Z M14.3,60.2 C13.2,61.5 14.6,63 15.2,64.2 L18.5,64.2 C19.1,63.3 19.9,62.5 19.7,61.3 C20.1,58.5 15.3,57.8 14.3,60.2 Z M20.1,19.6 C17.9,19.4 15.8,19.4 13.6,19.6 C12.5,20.2 12.7,21.4 12.6,22.5 C15.4,23.6 18.4,23.5 21.2,22.6 C21.2,21.5 21.5,20 20.1,19.6 Z" id="Shape"></path>
        </g>
    </g>
</svg>