<?xml version="1.0" encoding="UTF-8"?>
<svg width="79px" height="70px" viewBox="0 0 79 70" version="1.1" xmlns="http://www.w3.org/2000/svg" xmlns:xlink="http://www.w3.org/1999/xlink">
    <!-- Generator: Sketch 50.2 (55047) - http://www.bohemiancoding.com/sketch -->
    <title>order-intro-icon-2</title>
    <desc>Created with Sketch.</desc>
    <defs></defs>
    <g id="Page-1" stroke="none" stroke-width="1" fill="none" fill-rule="evenodd">
        <g id="order-intro-icon-2" transform="translate(0.666667, -1.000000)" fill="#000000" fill-rule="nonzero">
            <path d="M77.8,38 C77.7,32.3 72.8,28 67.5,26.8 C67.5,22.1 64.8,17.4 60.3,15.7 C57.9,15.3 55.5,15.5 53.1,15.5 C50.7,7.1 42.5,0.6 33.7,1 C23.3,1 14.2,10.8 14.5,21.2 C7.2,21.3 0.7,27.5 0.1,34.7 C-0.8,42.3 5.3,50 13,50.6 C18.3,50.7 23.6,50.6 28.9,50.6 C28.9,49.5 28.9,48.5 29,47.4 C24.6,47.3 20.1,47.4 15.7,47.4 C11.5,47.5 7.1,45.4 5.1,41.5 C1.9,36.2 4.3,28.4 10,25.9 C12.6,24.4 15.8,25.3 18.4,23.9 C18.5,20.3 18.1,16.5 20.1,13.4 C23.1,7.5 30,3.9 36.5,4.9 C41.5,5.5 45.9,8.7 48.4,13 C49.6,15.3 50.1,17.9 51.3,20.3 C53.6,19.5 56,18.3 58.5,18.9 C60.4,19.4 62.2,20.6 63.1,22.4 C64.7,24.8 63.8,27.7 64,30.4 C66.5,30.7 69.3,30.8 71.3,32.4 C75.5,35.4 75.5,42.6 71.4,45.7 C69.9,46.8 68.1,47.6 66.3,47.5 L46.8,47.5 C44.3,47.5 41.7,47.2 39.3,48 C39.3,48.7 39.4,50 39.4,50.6 C46.6,50.8 53.8,50.6 61.1,50.7 C63.9,50.6 66.7,50.9 69.5,50.5 C74.5,48.8 78.4,43.4 77.8,38 Z M36.1,63.5 C35.7,55.6 36.1,47.7 35.9,39.8 C35.9,38.1 34.2,38 32.9,38 C32.7,39 32.3,40 32.3,41 C32.1,48.5 32.5,56 32.1,63.4 C29.3,60.2 27.3,56.4 24.1,53.6 L22.4,54.5 C22.1,56.8 23.9,58.4 25.1,60 C27.9,63.5 30.5,67.3 33.4,70.8 C34.3,70.7 35.3,70.5 35.8,69.7 C38.9,65.7 42,61.6 45,57.5 C45.8,56.7 45.7,55.5 45.8,54.5 L44.1,53.7 C40.9,56.5 39,60.5 36.1,63.5 Z" id="Shape"></path>
        </g>
    </g>
</svg>